Jour;Nb_E;Nb_I;Nb_R;Nb_S
0;0;20;0;19980
1;11;20;0;19969
2;19;19;1;19961
3;32;20;2;19946
4;33;22;6;19939
5;46;29;7;19918
6;57;35;9;19899
7;67;45;12;19876
8;92;47;14;19847
9;95;64;20;19821
10;119;66;29;19786
11;135;81;38;19746
12;153;106;46;19695
13;218;120;57;19605
14;280;140;70;19510
15;324;174;82;19420
16;402;219;101;19278
17;459;271;126;19144
18;540;330;159;18971
19;622;403;192;18783
20;747;480;236;18537
21;922;560;290;18228
22;1077;667;358;17898
23;1275;810;439;17476
24;1484;959;538;17019
25;1723;1159;637;16481
26;2037;1375;742;15846
27;2324;1600;890;15186
28;2608;1927;1051;14414
29;2979;2270;1249;13502
30;3331;2630;1470;12569
31;3675;3038;1764;11523
32;4009;3495;2072;10424
33;4311;3981;2414;9294
34;4515;4437;2841;8207
35;4619;4910;3294;7177
36;4647;5372;3833;6148
37;4496;5836;4396;5272
38;4400;6192;5032;4376
39;4223;6514;5684;3579
40;3919;6675;6461;2945
41;3539;6761;7255;2445
42;3156;6841;8012;1991
43;2764;6825;8762;1649
44;2406;6726;9525;1343
45;2067;6436;10359;1138
46;1770;6193;11071;966
47;1505;5885;11784;826
48;1277;5541;12467;715
49;1051;5163;13154;632
50;870;4793;13756;581
51;730;4415;14296;559
52;610;4054;14807;529
53;511;3707;15251;531
54;437;3375;15667;521
55;378;3030;16079;513
56;328;2724;16436;512
57;283;2437;16761;519
58;232;2196;17013;559
59;199;1976;17245;580
60;198;1756;17451;595
61;185;1560;17633;622
62;168;1382;17806;644
63;159;1246;17908;687
64;151;1120;18005;724
65;139;989;18114;758
66;137;883;18199;781
67;131;796;18264;809
68;123;721;18312;844
69;118;661;18339;882
70;112;602;18368;918
71;107;540;18392;961
72;96;499;18397;1008
73;98;440;18408;1054
74;87;401;18423;1089
75;73;362;18409;1156
76;62;334;18384;1220
77;62;296;18366;1276
78;68;258;18344;1330
79;66;249;18303;1382
80;61;234;18260;1445
81;55;215;18218;1512
82;47;191;18182;1580
83;37;173;18151;1639
84;31;154;18116;1699
85;31;136;18066;1767
86;30;131;18016;1823
87;41;117;17979;1863
88;40;101;17925;1934
89;38;97;17871;1994
90;33;93;17825;2049
91;31;88;17760;2121
92;34;85;17707;2174
93;30;88;17655;2227
94;27;85;17606;2282
95;26;79;17551;2344
96;23;74;17495;2408
97;24;67;17464;2445
98;21;66;17427;2486
99;22;62;17368;2548
100;25;57;17336;2582
101;16;58;17292;2634
102;20;53;17240;2687
103;23;48;17195;2734
104;22;49;17147;2782
105;24;47;17102;2827
106;22;47;17053;2878
107;26;43;17004;2927
108;23;41;16970;2966
109;17;46;16929;3008
110;21;38;16888;3053
111;21;35;16837;3107
112;21;38;16787;3154
113;20;37;16750;3193
114;19;33;16712;3236
115;21;34;16667;3278
116;18;35;16616;3331
117;17;34;16567;3382
118;12;36;16512;3440
119;14;37;16451;3498
120;10;38;16411;3541
121;12;34;16359;3595
122;12;30;16305;3653
123;15;31;16269;3685
124;15;31;16217;3737
125;16;32;16168;3784
126;19;28;16134;3819
127;21;25;16109;3845
128;20;27;16061;3892
129;15;32;16023;3930
130;12;29;15980;3979
131;11;30;15941;4018
132;11;31;15904;4054
133;14;31;15852;4103
134;17;28;15817;4138
135;24;28;15773;4175
136;23;31;15719;4227
137;19;31;15678;4272
138;20;27;15632;4321
139;16;25;15590;4369
140;18;24;15542;4416
141;15;28;15493;4464
142;15;28;15447;4510
143;18;24;15414;4544
144;18;24;15378;4580
145;16;30;15343;4611
146;19;28;15304;4649
147;15;29;15255;4701
148;16;31;15216;4737
149;13;29;15178;4780
150;12;30;15137;4821
151;12;28;15100;4860
152;16;24;15062;4898
153;19;21;15029;4931
154;18;23;14987;4972
155;16;23;14945;5016
156;17;21;14909;5053
157;20;19;14876;5085
158;19;22;14835;5124
159;21;23;14786;5170
160;22;25;14747;5206
161;21;29;14704;5246
162;19;30;14659;5292
163;20;28;14621;5331
164;21;27;14580;5372
165;19;30;14541;5410
166;17;36;14509;5438
167;17;35;14472;5476
168;22;29;14446;5503
169;26;30;14402;5542
170;26;31;14367;5576
171;26;29;14329;5616
172;27;29;14301;5643
173;27;31;14261;5681
174;26;32;14210;5732
175;25;34;14161;5780
176;24;37;14127;5812
177;21;40;14096;5843
178;23;40;14060;5877
179;22;43;14030;5905
180;27;44;13987;5942
181;27;43;13958;5972
182;28;40;13932;6000
183;26;44;13903;6027
184;33;44;13875;6048
185;35;46;13843;6076
186;37;48;13814;6101
187;35;51;13780;6134
188;38;54;13747;6161
189;43;60;13723;6174
190;46;64;13677;6213
191;47;64;13646;6243
192;43;65;13615;6277
193;48;66;13581;6305
194;58;65;13562;6315
195;64;61;13521;6354
196;65;65;13484;6386
197;57;77;13450;6416
198;59;78;13425;6438
199;67;84;13388;6461
200;70;95;13351;6484
201;74;98;13323;6505
202;80;99;13291;6530
203;81;107;13259;6553
204;89;113;13228;6570
205;95;113;13212;6580
206;92;126;13190;6592
207;99;121;13172;6608
208;103;129;13143;6625
209;113;138;13116;6633
210;118;152;13098;6632
211;127;161;13073;6639
212;138;165;13055;6642
213;140;176;13039;6645
214;142;178;13028;6652
215;147;191;13008;6654
216;149;214;12982;6655
217;169;211;12963;6657
218;167;221;12938;6674
219;172;248;12928;6652
220;188;250;12918;6644
221;209;252;12920;6619
222;207;266;12909;6618
223;213;278;12904;6605
224;237;275;12916;6572
225;250;296;12909;6545
226;252;317;12905;6526
227;246;350;12895;6509
228;264;362;12903;6471
229;281;361;12905;6453
230;299;384;12910;6407
231;314;395;12917;6374
232;333;417;12922;6328
233;361;429;12936;6274
234;363;449;12950;6238
235;382;466;12975;6177
236;400;494;12989;6117
237;400;519;13016;6065
238;389;557;13043;6011
239;399;573;13046;5982
240;430;586;13065;5919
241;452;603;13096;5849
242;471;619;13124;5786
243;472;653;13165;5710
244;497;699;13184;5620
245;512;722;13205;5561
246;521;745;13258;5476
247;539;772;13299;5390
248;535;795;13333;5337
249;522;841;13369;5268
250;543;852;13420;5185
251;556;879;13474;5091
252;594;895;13519;4992
253;607;904;13594;4895
254;614;930;13643;4813
255;637;968;13691;4704
256;620;983;13759;4638
257;620;1006;13820;4554
258;611;1024;13898;4467
259;620;1037;13972;4371
260;650;1040;14054;4256
261;639;1078;14103;4180
262;622;1085;14195;4098
263;619;1079;14259;4043
264;623;1086;14334;3957
265;610;1092;14408;3890
266;631;1098;14467;3804
267;631;1096;14547;3726
268;610;1101;14644;3645
269;601;1105;14715;3579
270;600;1095;14794;3511
271;577;1100;14877;3446
272;576;1085;14952;3387
273;565;1086;15026;3323
274;551;1067;15103;3279
275;549;1052;15161;3238
276;530;1035;15209;3226
277;490;1015;15307;3188
278;479;1006;15370;3145
279;471;973;15455;3101
280;466;970;15499;3065
281;442;966;15558;3034
282;415;947;15600;3038
283;411;912;15662;3015
284;401;888;15709;3002
285;381;889;15737;2993
286;365;867;15786;2982
287;355;841;15796;3008
288;348;813;15842;2997
289;344;793;15866;2997
290;341;765;15905;2989
291;350;733;15929;2988
292;333;721;15956;2990
293;312;714;15974;3000
294;311;699;15984;3006
295;303;690;15996;3011
296;295;682;16000;3023
297;281;633;16001;3085
298;272;623;15984;3121
299;253;620;15967;3160
300;266;607;15961;3166
301;274;588;15963;3175
302;280;556;15967;3197
303;261;547;15956;3236
304;269;541;15921;3269
305;265;530;15905;3300
306;258;533;15887;3322
307;252;521;15882;3345
308;263;501;15882;3354
309;261;503;15861;3375
310;242;503;15841;3414
311;244;500;15830;3426
312;246;481;15806;3467
313;230;487;15773;3510
314;230;499;15726;3545
315;244;486;15698;3572
316;254;466;15683;3597
317;234;467;15661;3638
318;232;475;15615;3678
319;237;467;15594;3702
320;245;466;15558;3731
321;228;475;15527;3770
322;241;445;15492;3822
323;224;434;15469;3873
324;220;424;15448;3908
325;229;421;15420;3930
326;230;427;15386;3957
327;230;431;15354;3985
328;241;420;15331;4008
329;232;418;15325;4025
330;220;408;15314;4058
331;214;419;15289;4078
332;214;421;15236;4129
333;205;419;15196;4180
334;201;410;15158;4231
335;225;404;15131;4240
336;227;397;15094;4282
337;222;404;15063;4311
338;221;406;15029;4344
339;215;407;14982;4396
340;229;415;14959;4397
341;224;414;14942;4420
342;229;402;14925;4444
343;225;407;14875;4493
344;242;397;14848;4513
345;241;409;14808;4542
346;224;414;14788;4574
347;226;421;14754;4599
348;240;406;14726;4628
349;245;408;14690;4657
350;233;430;14647;4690
351;252;415;14635;4698
352;255;428;14609;4708
353;237;454;14545;4764
354;249;446;14524;4781
355;262;432;14504;4802
356;253;451;14480;4816
357;274;451;14440;4835
358;289;451;14409;4851
359;289;469;14371;4871
360;305;457;14364;4874
361;305;466;14343;4886
362;333;476;14303;4888
363;326;493;14292;4889
364;314;516;14278;4892
365;322;524;14252;4902
366;321;530;14225;4924
367;337;548;14209;4906
368;362;554;14179;4905
369;370;558;14157;4915
370;375;567;14139;4919
371;363;579;14140;4918
372;355;591;14140;4914
373;366;606;14121;4907
374;388;611;14101;4900
375;411;621;14093;4875
376;418;631;14077;4874
377;427;639;14055;4879
378;426;659;14057;4858
379;441;666;14046;4847
380;439;696;14049;4816
381;469;698;14057;4776
382;463;721;14063;4753
383;449;752;14089;4710
384;465;779;14076;4680
385;456;814;14072;4658
386;472;826;14094;4608
387;496;812;14123;4569
388;490;816;14160;4534
389;484;842;14167;4507
390;484;852;14196;4468
391;501;866;14212;4421
392;514;854;14251;4381
393;509;844;14263;4384
394;514;865;14280;4341
395;526;868;14311;4295
396;523;885;14320;4272
397;505;885;14341;4269
398;495;926;14340;4239
399;492;928;14362;4218
400;491;928;14393;4188
401;502;914;14407;4177
402;504;909;14430;4157
403;520;894;14472;4114
404;526;892;14498;4084
405;525;882;14518;4075
406;509;905;14528;4058
407;509;912;14550;4029
408;480;919;14575;4026
409;506;913;14608;3973
410;524;908;14621;3947
411;529;903;14641;3927
412;498;916;14659;3927
413;483;929;14670;3918
414;475;916;14718;3891
415;461;922;14751;3866
416;464;934;14752;3850
417;459;920;14790;3831
418;459;920;14788;3833
419;453;925;14806;3816
420;446;911;14845;3798
421;475;875;14877;3773
422;484;858;14910;3748
423;466;874;14934;3726
424;457;892;14936;3715
425;423;896;14957;3724
426;433;877;14978;3712
427;420;856;15008;3716
428;406;857;15025;3712
429;394;833;15045;3728
430;388;815;15055;3742
431;382;792;15072;3754
432;382;804;15077;3737
433;390;777;15097;3736
434;391;743;15124;3742
435;411;722;15121;3746
436;392;722;15111;3775
437;394;709;15116;3781
438;391;719;15108;3782
439;405;711;15089;3795
440;400;704;15079;3817
441;403;712;15057;3828
442;402;723;15037;3838
443;392;710;15045;3853
444;389;715;15038;3858
445;400;711;15032;3857
446;388;722;15006;3884
447;397;717;14997;3889
448;395;739;14969;3897
449;403;731;14964;3902
450;391;736;14968;3905
451;368;752;14958;3922
452;381;741;14943;3935
453;395;731;14958;3916
454;401;733;14957;3909
455;387;735;14967;3911
456;390;716;14977;3917
457;376;729;14966;3929
458;379;739;14965;3917
459;373;748;14968;3911
460;375;735;14967;3923
461;382;729;14964;3925
462;396;712;14987;3905
463;413;701;14968;3918
464;406;701;14967;3926
465;416;712;14953;3919
466;426;731;14934;3909
467;416;735;14940;3909
468;405;740;14936;3919
469;398;738;14939;3925
470;380;750;14925;3945
471;387;737;14926;3950
472;407;724;14907;3962
473;400;743;14903;3954
474;393;755;14887;3965
475;387;743;14899;3971
476;411;738;14899;3952
477;410;744;14897;3949
478;414;741;14890;3955
479;401;734;14896;3969
480;402;724;14908;3966
481;399;724;14924;3953
482;405;737;14914;3944
483;405;724;14934;3937
484;417;712;14930;3941
485;386;731;14902;3981
486;358;744;14889;4009
487;362;740;14881;4017
488;373;745;14871;4011
489;365;742;14868;4025
490;382;714;14884;4020
491;393;699;14913;3995
492;386;707;14903;4004
493;402;694;14893;4011
494;400;681;14896;4023
495;378;685;14897;4040
496;374;695;14881;4050
497;373;707;14858;4062
498;393;706;14845;4056
499;392;691;14854;4063
500;378;709;14830;4083
501;389;704;14825;4082
502;399;695;14824;4082
503;413;697;14809;4081
504;414;690;14792;4104
505;400;708;14775;4117
506;388;709;14756;4147
507;387;721;14756;4136
508;384;725;14762;4129
509;375;715;14749;4161
510;386;721;14735;4158
511;397;700;14768;4135
512;406;689;14767;4138
513;384;708;14762;4146
514;366;718;14781;4135
515;377;708;14777;4138
516;396;692;14788;4124
517;417;684;14780;4119
518;404;689;14786;4121
519;402;674;14814;4110
520;405;682;14813;4100
521;390;679;14823;4108
522;388;684;14821;4107
523;382;675;14820;4123
524;399;662;14835;4104
525;400;653;14810;4137
526;426;641;14810;4123
527;418;656;14809;4117
528;423;659;14810;4108
529;418;670;14810;4102
530;402;681;14806;4111
531;377;704;14810;4109
532;369;705;14812;4114
533;379;679;14824;4118
534;389;662;14832;4117
535;376;683;14811;4130
536;385;679;14805;4131
537;400;674;14781;4145
538;384;684;14787;4145
539;409;672;14782;4137
540;393;694;14768;4145
541;406;691;14774;4129
542;395;699;14780;4126
543;384;695;14795;4126
544;391;683;14815;4111
545;385;684;14804;4127
546;395;685;14783;4137
547;401;694;14777;4128
548;399;694;14780;4127
549;395;708;14765;4132
550;409;714;14757;4120
551;401;721;14745;4133
552;413;702;14751;4134
553;420;700;14764;4116
554;405;706;14781;4108
555;413;702;14781;4104
556;410;705;14782;4103
557;393;709;14789;4109
558;400;701;14801;4098
559;394;716;14801;4089
560;390;710;14807;4093
561;402;713;14798;4087
562;398;707;14808;4087
563;408;695;14814;4083
564;395;701;14804;4100
565;367;720;14792;4121
566;375;724;14786;4115
567;378;722;14782;4118
568;392;718;14772;4118
569;400;725;14790;4085
570;409;703;14799;4089
571;414;709;14805;4072
572;385;714;14818;4083
573;373;708;14816;4103
574;384;702;14814;4100
575;390;698;14818;4094
576;409;691;14818;4082
577;396;708;14822;4074
578;387;706;14820;4087
579;374;719;14823;4084
580;387;711;14827;4075
581;382;708;14834;4076
582;380;719;14844;4057
583;392;722;14836;4050
584;394;718;14847;4041
585;405;721;14854;4020
586;424;724;14855;3997
587;409;722;14857;4012
588;399;725;14854;4022
589;397;736;14865;4002
590;398;737;14853;4012
591;382;746;14853;4019
592;388;761;14857;3994
593;411;722;14887;3980
594;388;738;14884;3990
595;381;748;14902;3969
596;388;758;14880;3974
597;407;748;14847;3998
598;389;747;14848;4016
599;412;741;14835;4012
600;410;729;14834;4027
601;413;719;14855;4013
602;416;703;14865;4016
603;398;727;14863;4012
604;415;730;14872;3983
605;419;718;14870;3993
606;400;728;14871;4001
607;406;727;14875;3992
608;407;736;14854;4003
609;412;747;14853;3988
610;429;728;14864;3979
611;422;738;14856;3984
612;421;738;14848;3993
613;403;752;14821;4024
614;383;777;14823;4017
615;407;774;14814;4005
616;415;774;14802;4009
617;427;780;14806;3987
618;422;770;14834;3974
619;401;772;14849;3978
620;383;780;14863;3974
621;376;781;14867;3976
622;389;768;14892;3951
623;397;752;14910;3941
624;400;741;14931;3928
625;414;719;14934;3933
626;400;729;14936;3935
627;407;711;14943;3939
628;391;731;14942;3936
629;403;719;14943;3935
630;434;706;14956;3904
631;434;699;14965;3902
632;410;700;14982;3908
633;378;737;14964;3921
634;368;730;14983;3919
635;385;725;14996;3894
636;390;727;15010;3873
637;374;722;15012;3892
638;366;744;14998;3892
639;355;749;15004;3892
640;369;732;15016;3883
641;393;703;15004;3900
642;413;701;15018;3868
643;393;708;15023;3876
644;366;711;15031;3892
645;371;729;15011;3889
646;374;719;14991;3916
647;367;723;14988;3922
648;360;721;14986;3933
649;363;701;14988;3948
650;362;693;14986;3959
651;371;684;14982;3963
652;370;689;14970;3971
653;391;688;14943;3978
654;366;691;14921;4022
655;355;698;14919;4028
656;365;709;14895;4031
657;378;707;14881;4034
658;383;692;14877;4048
659;385;694;14874;4047
660;374;689;14874;4063
661;382;686;14883;4049
662;385;676;14887;4052
663;370;670;14894;4066
664;378;664;14905;4053
665;385;654;14906;4055
666;374;650;14895;4081
667;391;643;14876;4090
668;371;643;14877;4109
669;374;652;14855;4119
670;370;651;14852;4127
671;372;646;14845;4137
672;365;638;14846;4151
673;378;622;14842;4158
674;365;624;14822;4189
675;372;623;14806;4199
676;351;629;14807;4213
677;376;631;14812;4181
678;380;638;14777;4205
679;369;656;14771;4204
680;381;659;14755;4205
681;384;672;14748;4196
682;380;670;14744;4206
683;401;654;14737;4208
684;403;659;14711;4227
685;378;669;14713;4240
686;372;662;14698;4268
687;366;656;14690;4288
688;366;654;14685;4295
689;364;650;14668;4318
690;376;660;14644;4320
691;381;669;14623;4327
692;369;691;14601;4339
693;378;702;14570;4350
694;391;684;14566;4359
695;394;675;14564;4367
696;394;668;14576;4362
697;395;699;14533;4373
698;408;704;14511;4377
699;427;696;14491;4386
700;441;712;14495;4352
701;432;717;14516;4335
702;412;723;14534;4331
703;410;739;14522;4329
704;415;736;14534;4315
705;401;755;14527;4317
706;401;775;14511;4313
707;416;768;14510;4306
708;435;760;14528;4277
709;453;764;14517;4266
710;475;760;14494;4271
711;465;771;14492;4272
712;448;791;14481;4280
713;445;800;14487;4268
714;454;795;14496;4255
715;463;806;14488;4243
716;491;797;14497;4215
717;488;814;14479;4219
718;471;829;14452;4248
719;464;840;14451;4245
720;489;817;14470;4224
721;495;836;14477;4192
722;498;839;14501;4162
723;485;850;14504;4161
724;498;854;14526;4122
725;501;867;14524;4108
726;472;890;14525;4113
727;472;875;14581;4072
728;456;879;14598;4067
729;460;864;14637;4039
