Jour;Nb_E;Nb_I;Nb_R;Nb_S
0;0;20;0;19980
1;10;20;0;19970
2;21;17;3;19959
3;23;16;8;19953
4;25;18;11;19946
5;38;21;11;19930
6;41;25;12;19922
7;53;31;14;19902
8;71;31;18;19880
9;74;41;23;19862
10;89;55;26;19830
11;96;64;34;19806
12;128;80;39;19753
13;152;87;51;19710
14;174;110;60;19656
15;208;141;68;19583
16;242;171;79;19508
17;302;200;95;19403
18;371;243;116;19270
19;441;289;147;19123
20;557;355;174;18914
21;675;413;212;18700
22;834;496;257;18413
23;1003;597;296;18104
24;1150;765;347;17738
25;1353;914;429;17304
26;1630;1067;523;16780
27;1850;1320;622;16208
28;2197;1547;729;15527
29;2543;1851;869;14737
30;2968;2113;1054;13865
31;3281;2486;1272;12961
32;3609;2902;1535;11954
33;3964;3341;1829;10866
34;4315;3815;2164;9706
35;4525;4337;2546;8592
36;4728;4784;3010;7478
37;4854;5223;3556;6367
38;4789;5700;4125;5386
39;4734;6091;4747;4428
40;4402;6481;5441;3676
41;4051;6765;6166;3018
42;3726;6922;6934;2418
43;3330;6961;7743;1966
44;2841;6952;8578;1629
45;2491;6834;9343;1332
46;2120;6657;10106;1117
47;1781;6364;10905;950
48;1509;6011;11683;797
49;1282;5653;12370;695
50;1055;5295;13028;622
51;867;4917;13660;556
52;718;4522;14231;529
53;624;4066;14813;497
54;538;3665;15333;464
55;457;3349;15738;456
56;391;2995;16158;456
57;330;2706;16506;458
58;277;2406;16848;469
59;237;2170;17096;497
60;198;1961;17310;531
61;171;1724;17538;567
62;159;1515;17739;587
63;150;1353;17883;614
64;132;1236;17986;646
65;118;1098;18107;677
66;111;982;18202;705
67;97;868;18302;733
68;97;760;18381;762
69;85;679;18419;817
70;82;621;18442;855
71;63;558;18478;901
72;63;489;18505;943
73;54;437;18503;1006
74;61;381;18487;1071
75;65;331;18480;1124
76;62;298;18451;1189
77;51;268;18416;1265
78;41;249;18384;1326
79;42;213;18371;1374
80;43;192;18330;1435
81;44;174;18297;1485
82;46;161;18253;1540
83;37;152;18220;1591
84;32;144;18179;1645
85;34;133;18133;1700
86;31;124;18081;1764
87;32;106;18034;1828
88;33;101;17990;1876
89;25;100;17941;1934
90;23;95;17891;1991
91;19;96;17841;2044
92;19;79;17812;2090
93;22;69;17787;2122
94;23;60;17740;2177
95;21;60;17691;2228
96;23;56;17650;2271
97;21;52;17596;2331
98;17;52;17527;2404
99;13;52;17490;2445
100;11;48;17433;2508
101;10;44;17398;2548
102;10;41;17344;2605
103;10;38;17293;2659
104;6;30;17250;2714
105;6;28;17197;2769
106;8;26;17139;2827
107;9;26;17087;2878
108;11;22;17039;2928
109;10;19;16983;2988
110;8;20;16932;3040
111;8;20;16881;3091
112;8;18;16828;3146
113;7;14;16790;3189
114;7;16;16737;3240
115;7;18;16690;3285
116;10;16;16637;3337
117;9;16;16579;3396
118;8;19;16530;3443
119;7;20;16495;3478
120;7;20;16454;3519
121;6;15;16416;3563
122;7;12;16379;3602
123;10;11;16336;3643
124;11;11;16296;3682
125;10;12;16249;3729
126;9;12;16210;3769
127;6;15;16173;3806
128;6;15;16124;3855
129;8;14;16089;3889
130;8;13;16040;3939
131;7;15;15997;3981
132;8;14;15950;4028
133;6;13;15899;4082
134;6;12;15849;4133
135;6;12;15812;4170
136;5;12;15766;4217
137;6;14;15730;4250
138;6;13;15701;4280
139;6;14;15650;4330
140;5;17;15612;4366
141;5;20;15560;4415
142;8;18;15515;4459
143;8;17;15468;4507
144;7;16;15428;4549
145;6;15;15386;4593
146;5;15;15338;4642
147;6;15;15291;4688
148;12;14;15242;4732
149;10;15;15215;4760
150;9;14;15181;4796
151;10;15;15131;4844
152;12;15;15093;4880
153;9;16;15046;4929
154;9;16;15005;4970
155;10;17;14948;5025
156;7;19;14893;5081
157;10;18;14855;5117
158;15;18;14813;5154
159;10;21;14773;5196
160;8;18;14741;5233
161;12;17;14700;5271
162;11;18;14661;5310
163;11;18;14620;5351
164;12;17;14586;5385
165;11;18;14556;5415
166;12;15;14523;5450
167;12;17;14482;5489
168;11;17;14450;5522
169;12;16;14402;5570
170;15;17;14370;5598
171;12;21;14330;5637
172;11;23;14282;5684
173;10;23;14244;5723
174;14;25;14207;5754
175;12;26;14165;5797
176;14;24;14110;5852
177;14;24;14075;5887
178;16;23;14051;5910
179;21;20;14012;5947
180;23;19;13971;5987
181;22;22;13936;6020
182;25;26;13895;6054
183;28;31;13858;6083
184;36;29;13827;6108
185;32;37;13795;6136
186;36;41;13752;6171
187;39;41;13727;6193
188;31;50;13691;6228
189;32;56;13646;6266
190;42;57;13604;6297
191;47;56;13574;6323
192;47;57;13544;6352
193;45;66;13505;6384
194;48;71;13467;6414
195;54;69;13438;6439
196;52;74;13416;6458
197;55;76;13392;6477
198;63;82;13365;6490
199;65;83;13340;6512
200;68;97;13321;6514
201;71;106;13302;6521
202;74;112;13267;6547
203;99;113;13233;6555
204;102;122;13201;6575
205;110;132;13176;6582
206;112;134;13157;6597
207;115;145;13133;6607
208;105;158;13101;6636
209;120;165;13082;6633
210;135;177;13064;6624
211;145;181;13054;6620
212;143;187;13035;6635
213;131;203;13025;6641
214;156;215;12999;6630
215;179;221;12987;6613
216;186;229;12980;6605
217;196;238;12969;6597
218;219;269;12940;6572
219;228;279;12927;6566
220;225;296;12928;6551
221;238;306;12937;6519
222;247;327;12921;6505
223;259;344;12925;6472
224;287;362;12921;6430
225;297;377;12925;6401
226;301;407;12922;6370
227;317;419;12925;6339
228;322;431;12945;6302
229;345;458;12949;6248
230;370;486;12951;6193
231;401;498;12982;6119
232;419;511;12996;6074
233;443;540;13006;6011
234;458;567;13027;5948
235;458;603;13055;5884
236;470;642;13087;5801
237;476;682;13109;5733
238;474;720;13139;5667
239;484;772;13161;5583
240;502;785;13202;5511
241;511;785;13273;5431
242;516;791;13329;5364
243;545;820;13352;5283
244;578;839;13397;5186
245;573;848;13451;5128
246;591;878;13505;5026
247;581;905;13555;4959
248;579;913;13617;4891
249;583;926;13695;4796
250;591;924;13763;4722
251;591;912;13834;4663
252;565;935;13881;4619
253;552;952;13939;4557
254;573;973;13989;4465
255;592;972;14060;4376
256;584;985;14122;4309
257;547;1024;14193;4236
258;548;1040;14249;4163
259;582;1031;14312;4075
260;592;1016;14398;3994
261;580;1050;14452;3918
262;579;1034;14548;3839
263;593;1025;14617;3765
264;564;1067;14669;3700
265;563;1072;14749;3616
266;546;1062;14828;3564
267;525;1071;14901;3503
268;529;1076;14951;3444
269;528;1066;15009;3397
270;518;1061;15061;3360
271;517;1010;15133;3340
272;498;987;15213;3302
273;492;968;15286;3254
274;477;956;15347;3220
275;440;980;15400;3180
276;439;941;15474;3146
277;443;918;15522;3117
278;412;901;15569;3118
279;413;873;15605;3109
280;405;873;15627;3095
281;398;867;15642;3093
282;384;857;15668;3091
283;379;864;15679;3078
284;374;830;15726;3070
285;371;786;15771;3072
286;365;778;15799;3058
287;340;775;15813;3072
288;316;778;15831;3075
289;334;739;15844;3083
290;336;718;15860;3086
291;326;684;15871;3119
292;308;681;15878;3133
293;293;683;15882;3142
294;290;678;15885;3147
295;282;672;15881;3165
296;289;644;15905;3162
297;272;633;15914;3181
298;278;595;15936;3191
299;269;579;15936;3216
300;275;542;15936;3247
301;269;535;15921;3275
302;269;526;15893;3312
303;265;530;15864;3341
304;254;537;15836;3373
305;253;542;15821;3384
306;266;519;15802;3413
307;276;511;15783;3430
308;282;514;15771;3433
309;279;510;15752;3459
310;282;516;15740;3462
311;287;500;15731;3482
312;284;507;15699;3510
313;268;504;15696;3532
314;269;513;15669;3549
315;273;513;15638;3576
316;269;499;15631;3601
317;253;512;15592;3643
318;245;516;15566;3673
319;255;504;15549;3692
320;245;515;15516;3724
321;268;482;15522;3728
322;274;473;15504;3749
323;270;486;15471;3773
324;270;487;15460;3783
325;277;489;15427;3807
326;260;493;15406;3841
327;249;496;15379;3876
328;242;482;15381;3895
329;242;479;15348;3931
330;243;479;15330;3948
331;240;485;15292;3983
332;243;488;15254;4015
333;247;481;15221;4051
334;251;458;15222;4069
335;262;449;15184;4105
336;261;444;15163;4132
337;272;432;15143;4153
338;279;429;15114;4178
339;274;447;15067;4212
340;263;454;15069;4214
341;260;470;15039;4231
342;264;478;15032;4226
343;271;475;15014;4240
344;271;472;15001;4256
345;258;466;14995;4281
346;255;479;14964;4302
347;255;475;14938;4332
348;269;465;14933;4333
349;282;472;14905;4341
350;275;485;14876;4364
351;281;489;14846;4384
352;266;486;14828;4420
353;269;480;14810;4441
354;279;486;14765;4470
355;298;497;14743;4462
356;303;499;14714;4484
357;305;497;14691;4507
358;295;512;14676;4517
359;296;520;14658;4526
360;297;525;14654;4524
361;310;525;14636;4529
362;319;539;14583;4559
363;305;558;14561;4576
364;317;546;14549;4588
365;319;550;14534;4597
366;312;549;14528;4611
367;318;553;14515;4614
368;318;563;14472;4647
369;328;558;14456;4658
370;332;568;14440;4660
371;337;578;14424;4661
372;345;574;14418;4663
373;339;578;14411;4672
374;350;560;14402;4688
375;343;566;14390;4701
376;339;583;14370;4708
377;347;586;14368;4699
378;353;603;14352;4692
379;367;599;14360;4674
380;375;612;14362;4651
381;403;588;14361;4648
382;376;622;14348;4654
383;366;632;14360;4642
384;373;631;14357;4639
385;384;639;14345;4632
386;386;633;14358;4623
387;397;633;14352;4618
388;389;648;14362;4601
389;391;669;14355;4585
390;397;677;14345;4581
391;397;695;14341;4567
392;407;689;14345;4559
393;423;692;14350;4535
394;425;684;14342;4549
395;421;707;14331;4541
396;434;710;14340;4516
397;417;713;14359;4511
398;412;734;14330;4524
399;423;741;14321;4515
400;434;726;14351;4489
401;459;712;14351;4478
402;443;735;14342;4480
403;452;748;14346;4454
404;458;769;14352;4421
405;457;775;14378;4390
406;467;767;14402;4364
407;466;759;14437;4338
408;473;770;14437;4320
409;490;777;14459;4274
410;478;779;14489;4254
411;484;802;14486;4228
412;493;788;14481;4238
413;477;791;14506;4226
414;465;794;14515;4226
415;454;802;14534;4210
416;492;799;14524;4185
417;451;823;14517;4209
418;443;840;14505;4212
419;443;839;14517;4201
420;471;842;14520;4167
421;482;841;14548;4129
422;477;830;14565;4128
423;454;843;14565;4138
424;447;859;14573;4121
425;452;868;14562;4118
426;442;902;14566;4090
427;445;884;14573;4098
428;464;889;14576;4071
429;466;882;14597;4055
430;469;847;14659;4025
431;466;874;14646;4014
432;463;884;14659;3994
433;474;860;14691;3975
434;489;867;14696;3948
435;480;861;14716;3943
436;460;857;14749;3934
437;463;841;14761;3935
438;454;820;14817;3909
439;451;813;14833;3903
440;448;817;14848;3887
441;469;812;14859;3860
442;452;828;14851;3869
443;450;818;14858;3874
444;454;806;14866;3874
445;445;821;14850;3884
446;448;819;14845;3888
447;468;803;14877;3852
448;473;784;14887;3856
449;450;797;14911;3842
450;446;801;14925;3828
451;425;810;14935;3830
452;414;828;14952;3806
453;429;801;14994;3776
454;418;804;15006;3772
455;434;798;15015;3753
456;436;794;15037;3733
457;439;803;15010;3748
458;439;781;15044;3736
459;436;786;15029;3749
460;431;784;15020;3765
461;432;786;15018;3764
462;417;775;15009;3799
463;415;773;15026;3786
464;421;751;15037;3791
465;412;749;15029;3810
466;402;774;15029;3795
467;397;773;15004;3826
468;396;773;15015;3816
469;381;774;14985;3860
470;365;770;14993;3872
471;378;767;14981;3874
472;403;753;14989;3855
473;417;746;14985;3852
474;413;745;15002;3840
475;397;745;15022;3836
476;375;736;15028;3861
477;380;718;15034;3868
478;361;746;15014;3879
479;377;735;15027;3861
480;382;740;15017;3861
481;391;746;15012;3851
482;413;745;14991;3851
483;400;750;14973;3877
484;385;760;14980;3875
485;385;756;14971;3888
486;382;758;14970;3890
487;390;760;14953;3897
488;385;759;14953;3903
489;390;754;14959;3897
490;395;741;14974;3890
491;386;737;14966;3911
492;372;730;14966;3932
493;359;731;14955;3955
494;368;717;14949;3966
495;362;719;14960;3959
496;368;725;14948;3959
497;381;711;14957;3951
498;385;707;14940;3968
499;390;700;14937;3973
500;377;709;14930;3984
501;373;700;14942;3985
502;361;696;14944;3999
503;360;688;14952;4000
504;374;658;14965;4003
505;380;655;14968;3997
506;373;666;14963;3998
507;360;665;14961;4014
508;359;663;14952;4026
509;363;666;14952;4019
510;374;655;14947;4024
511;358;660;14917;4065
512;356;652;14907;4085
513;344;669;14891;4096
514;351;659;14890;4100
515;370;657;14892;4081
516;385;653;14882;4080
517;362;662;14864;4112
518;364;685;14844;4107
519;363;678;14835;4124
520;350;688;14823;4139
521;385;674;14824;4117
522;382;679;14833;4106
523;369;681;14829;4121
524;361;695;14812;4132
525;386;663;14811;4140
526;389;649;14813;4149
527;388;653;14813;4146
528;390;660;14805;4145
529;387;669;14802;4142
530;383;669;14806;4142
531;382;683;14797;4138
532;377;679;14756;4188
533;361;694;14751;4194
534;375;694;14751;4180
535;384;695;14737;4184
536;398;702;14744;4156
537;407;712;14743;4138
538;411;724;14728;4137
539;414;732;14714;4140
540;395;741;14717;4147
541;410;748;14699;4143
542;405;753;14700;4142
543;402;750;14717;4131
544;397;755;14714;4134
545;387;734;14733;4146
546;385;752;14721;4142
547;396;743;14729;4132
548;409;732;14727;4132
549;413;739;14726;4122
550;418;733;14730;4119
551;418;747;14716;4119
552;406;740;14710;4144
553;382;759;14698;4161
554;391;742;14710;4157
555;394;749;14705;4152
556;392;736;14719;4153
557;406;708;14747;4139
558;404;707;14773;4116
559;379;715;14764;4142
560;375;728;14745;4152
561;377;704;14762;4157
562;389;726;14738;4147
563;379;724;14744;4153
564;384;712;14744;4160
565;386;716;14729;4169
566;419;715;14711;4155
567;415;726;14725;4134
568;399;739;14706;4156
569;403;735;14692;4170
570;407;737;14707;4149
571;406;732;14698;4164
572;399;733;14720;4148
573;411;728;14732;4129
574;396;743;14732;4129
575;377;753;14748;4122
576;387;747;14759;4107
577;397;722;14795;4086
578;407;724;14797;4072
579;396;725;14808;4071
580;377;735;14823;4065
581;377;734;14832;4057
582;398;725;14852;4025
583;399;724;14860;4017
584;397;715;14859;4029
585;389;710;14869;4032
586;403;692;14866;4039
587;389;712;14846;4053
588;377;716;14882;4025
589;375;699;14873;4053
590;365;713;14870;4052
591;362;704;14879;4055
592;377;673;14875;4075
593;359;682;14872;4087
594;363;671;14872;4094
595;365;666;14858;4111
596;361;666;14826;4147
597;354;675;14814;4157
598;376;682;14795;4147
599;399;665;14784;4152
600;410;681;14771;4138
601;395;686;14757;4162
602;386;678;14765;4171
603;373;682;14765;4180
604;364;688;14761;4187
605;380;695;14744;4181
606;376;703;14737;4184
607;385;681;14748;4186
608;378;668;14756;4198
609;375;692;14724;4209
610;381;667;14711;4241
611;396;684;14688;4232
612;391;696;14673;4240
613;391;705;14683;4221
614;394;715;14680;4211
615;397;737;14665;4201
616;391;733;14683;4193
617;393;709;14712;4186
618;411;714;14720;4155
619;397;711;14741;4151
620;381;723;14729;4167
621;364;716;14741;4179
622;369;714;14736;4181
623;400;709;14728;4163
624;419;694;14719;4168
625;399;703;14719;4179
626;401;712;14698;4189
627;404;703;14716;4177
628;388;706;14720;4186
629;391;711;14717;4181
630;387;721;14706;4186
631;392;736;14710;4162
632;413;728;14716;4143
633;416;712;14740;4132
634;409;719;14734;4138
635;412;722;14726;4140
636;422;704;14742;4132
637;426;717;14724;4133
638;418;707;14731;4144
639;405;705;14743;4147
640;406;700;14766;4128
641;402;692;14780;4126
642;394;698;14786;4122
643;387;699;14778;4136
644;372;721;14769;4138
645;395;698;14776;4131
646;400;689;14778;4133
647;392;691;14790;4127
648;405;697;14765;4133
649;425;701;14757;4117
650;436;697;14752;4115
651;423;712;14744;4121
652;415;715;14728;4142
653;399;719;14712;4170
654;415;727;14706;4152
655;423;733;14687;4157
656;428;744;14680;4148
657;430;723;14717;4130
658;408;721;14733;4138
659;407;728;14722;4143
660;415;709;14754;4122
661;387;737;14755;4121
662;378;727;14791;4104
663;391;720;14816;4073
664;390;724;14812;4074
665;420;714;14801;4065
666;425;712;14827;4036
667;415;696;14835;4054
668;419;719;14819;4043
669;425;713;14830;4032
670;409;721;14837;4033
671;406;731;14829;4034
672;386;740;14819;4055
673;380;756;14823;4041
674;380;752;14813;4055
675;377;745;14798;4080
676;386;725;14817;4072
677;389;731;14810;4070
678;391;730;14809;4070
679;412;746;14774;4068
680;412;743;14782;4063
681;428;742;14793;4037
682;415;752;14807;4026
683;401;761;14797;4041
684;394;764;14811;4031
685;398;767;14796;4039
686;400;760;14808;4032
687;387;747;14812;4054
688;374;752;14818;4056
689;393;753;14790;4064
690;403;744;14791;4062
691;399;743;14795;4063
692;414;746;14793;4047
693;426;734;14787;4053
694;425;717;14795;4063
695;410;726;14793;4071
696;428;714;14773;4085
697;421;731;14777;4071
698;405;730;14785;4080
699;391;725;14793;4091
700;407;727;14773;4093
701;406;733;14760;4101
702;413;719;14761;4107
703;405;712;14764;4119
704;400;706;14781;4113
705;390;698;14767;4145
706;400;690;14766;4144
707;398;674;14766;4162
708;397;689;14758;4156
709;403;703;14734;4160
710;402;720;14714;4164
711;389;721;14729;4161
712;407;729;14723;4141
713;436;718;14719;4127
714;435;723;14736;4106
715;427;737;14730;4106
716;439;724;14725;4112
717;424;733;14726;4117
718;421;733;14734;4112
719;432;725;14742;4101
720;427;720;14735;4118
721;410;736;14728;4126
722;396;735;14732;4137
723;394;742;14729;4135
724;393;745;14735;4127
725;394;740;14721;4145
726;387;728;14749;4136
727;411;722;14747;4120
728;391;721;14755;4133
729;380;732;14752;4136
