Jour;Nb_E;Nb_I;Nb_R;Nb_S
0;0;20;0;19980
1;12;20;0;19968
2;29;17;3;19951
3;31;20;4;19945
4;39;25;7;19929
5;48;27;8;19917
6;55;36;13;19896
7;72;40;17;19871
8;85;46;23;19846
9;102;56;29;19813
10;114;70;35;19781
11;158;83;43;19716
12;190;107;51;19652
13;214;123;65;19598
14;252;156;78;19514
15;305;192;93;19410
16;387;218;112;19283
17;465;281;129;19125
18;544;342;162;18952
19;649;412;199;18740
20;765;505;236;18494
21;916;615;283;18186
22;1102;749;337;17812
23;1331;883;393;17393
24;1584;1054;466;16896
25;1863;1231;576;16330
26;2180;1462;695;15663
27;2526;1730;836;14908
28;2847;2054;1012;14087
29;3212;2452;1212;13124
30;3632;2803;1453;12112
31;4006;3227;1732;11035
32;4341;3767;2028;9864
33;4656;4228;2431;8685
34;4766;4789;2870;7575
35;4753;5337;3372;6538
36;4704;5823;3952;5521
37;4604;6157;4616;4623
38;4410;6515;5289;3786
39;4059;6856;5979;3106
40;3678;7043;6730;2549
41;3361;7122;7494;2023
42;2951;7043;8350;1656
43;2574;6916;9175;1335
44;2149;6734;9983;1134
45;1810;6475;10753;962
46;1504;6129;11547;820
47;1240;5795;12249;716
48;1033;5403;12937;627
49;851;5005;13574;570
50;692;4606;14169;533
51;553;4252;14684;511
52;498;3839;15162;501
53;431;3456;15607;506
54;358;3116;16020;506
55;307;2789;16384;520
56;250;2507;16705;538
57;224;2255;16957;564
58;197;2010;17198;595
59;189;1795;17416;600
60;179;1636;17568;617
61;158;1463;17741;638
62;140;1296;17897;667
63;136;1176;17981;707
64;114;1072;18068;746
65;108;943;18162;787
66;98;849;18212;841
67;89;761;18266;884
68;81;666;18308;945
69;73;590;18345;992
70;64;537;18347;1052
71;64;483;18377;1076
72;68;434;18370;1128
73;61;389;18365;1185
74;59;356;18343;1242
75;54;322;18325;1299
76;54;296;18297;1353
77;52;268;18256;1424
78;52;240;18244;1464
79;51;215;18221;1513
80;45;210;18185;1560
81;39;189;18144;1628
82;39;181;18100;1680
83;41;167;18063;1729
84;36;153;18018;1793
85;40;139;17980;1841
86;33;132;17947;1888
87;34;125;17908;1933
88;32;119;17859;1990
89;32;105;17823;2040
90;30;98;17762;2110
91;43;82;17719;2156
92;42;74;17679;2205
93;32;78;17630;2260
94;25;74;17579;2322
95;19;75;17514;2392
96;17;80;17460;2443
97;20;74;17404;2502
98;25;64;17360;2551
99;20;65;17305;2610
100;18;62;17255;2665
101;17;64;17211;2708
102;19;61;17152;2768
103;24;56;17098;2822
104;23;52;17057;2868
105;26;47;17020;2907
106;26;48;16973;2953
107;19;53;16937;2991
108;21;48;16902;3029
109;22;45;16841;3092
110;25;44;16795;3136
111;21;47;16753;3179
112;23;41;16706;3230
113;25;43;16661;3271
114;25;42;16607;3326
115;24;45;16555;3376
116;28;45;16506;3421
117;27;42;16467;3464
118;20;46;16429;3505
119;21;43;16394;3542
120;18;38;16370;3574
121;17;43;16325;3615
122;22;37;16283;3658
123;28;33;16244;3695
124;27;36;16204;3733
125;28;38;16155;3779
126;28;40;16116;3816
127;23;42;16064;3871
128;20;44;16014;3922
129;19;48;15971;3962
130;17;48;15915;4020
131;19;47;15873;4061
132;21;41;15835;4103
133;21;39;15790;4150
134;19;41;15750;4190
135;19;40;15714;4227
136;18;43;15679;4260
137;21;39;15638;4302
138;15;44;15593;4348
139;17;45;15542;4396
140;18;44;15508;4430
141;28;35;15470;4467
142;27;32;15431;4510
143;24;36;15383;4557
144;19;36;15339;4606
145;16;40;15293;4651
146;16;40;15253;4691
147;14;43;15202;4741
148;13;41;15150;4796
149;18;36;15115;4831
150;17;34;15075;4874
151;18;29;15030;4923
152;18;29;14996;4957
153;18;28;14944;5010
154;18;26;14909;5047
155;14;24;14866;5096
156;15;26;14817;5142
157;20;27;14769;5184
158;23;24;14736;5217
159;19;29;14696;5256
160;18;28;14652;5302
161;21;26;14614;5339
162;21;27;14551;5401
163;23;29;14513;5435
164;24;28;14472;5476
165;19;30;14430;5521
166;15;33;14393;5559
167;16;30;14354;5600
168;17;32;14319;5632
169;17;34;14268;5681
170;20;34;14234;5712
171;15;35;14205;5745
172;19;34;14171;5776
173;26;29;14130;5815
174;28;28;14093;5851
175;23;34;14043;5900
176;22;42;14002;5934
177;26;41;13969;5964
178;28;37;13939;5996
179;35;37;13900;6028
180;31;37;13873;6059
181;32;38;13845;6085
182;37;37;13814;6112
183;37;37;13770;6156
184;36;34;13731;6199
185;35;42;13693;6230
186;36;44;13650;6270
187;36;46;13620;6298
188;47;48;13581;6324
189;45;55;13545;6355
190;46;58;13511;6385
191;50;61;13471;6418
192;52;75;13435;6438
193;58;79;13409;6454
194;68;77;13374;6481
195;80;85;13342;6493
196;80;89;13305;6526
197;82;90;13281;6547
198;88;104;13253;6555
199;95;103;13225;6577
200;95;118;13203;6584
201;103;124;13175;6598
202;113;126;13154;6607
203;116;131;13134;6619
204;107;143;13110;6640
205;114;150;13089;6647
206;117;157;13075;6651
207;132;169;13040;6659
208;145;177;13030;6648
209;148;187;13005;6660
210;162;203;12972;6663
211;176;205;12959;6660
212;174;216;12952;6658
213;175;218;12943;6664
214;194;226;12926;6654
215;199;239;12919;6643
216;200;263;12912;6625
217;222;275;12896;6607
218;232;281;12899;6588
219;243;294;12883;6580
220;241;328;12878;6553
221;262;338;12883;6517
222;288;331;12885;6496
223;296;357;12883;6464
224;315;368;12889;6428
225;324;389;12890;6397
226;329;425;12890;6356
227;345;444;12902;6309
228;367;472;12912;6249
229;373;502;12909;6216
230;393;533;12909;6165
231;409;568;12928;6095
232;416;603;12944;6037
233;425;616;12974;5985
234;471;621;13012;5896
235;501;632;13053;5814
236;501;657;13096;5746
237;510;709;13112;5669
238;544;721;13156;5579
239;555;742;13206;5497
240;576;758;13241;5425
241;577;802;13293;5328
242;594;838;13350;5218
243;613;852;13387;5148
244;607;894;13433;5066
245;612;949;13462;4977
246;638;970;13522;4870
247;645;998;13579;4778
248;642;1051;13632;4675
249;655;1059;13718;4568
250;600;1103;13800;4497
251;618;1112;13861;4409
252;611;1084;13970;4335
253;604;1087;14051;4258
254;631;1088;14126;4155
255;659;1074;14214;4053
256;671;1089;14272;3968
257;617;1135;14348;3900
258;608;1164;14421;3807
259;604;1170;14512;3714
260;590;1157;14595;3658
261;578;1118;14689;3615
262;565;1110;14761;3564
263;544;1117;14832;3507
264;532;1120;14889;3459
265;528;1116;14954;3402
266;516;1106;15007;3371
267;543;1069;15083;3305
268;551;1045;15141;3263
269;535;1029;15186;3250
270;503;1025;15273;3199
271;476;1046;15304;3174
272;474;1028;15370;3128
273;465;1012;15414;3109
274;461;990;15480;3069
275;446;977;15527;3050
276;456;951;15562;3031
277;434;941;15596;3029
278;434;916;15653;2997
279;406;907;15690;2997
280;398;888;15735;2979
281;379;888;15760;2973
282;375;843;15806;2976
283;355;856;15832;2957
284;359;820;15845;2976
285;349;779;15898;2974
286;332;772;15904;2992
287;324;745;15933;2998
288;311;747;15937;3005
289;300;742;15954;3004
290;299;710;15980;3011
291;305;674;15998;3023
292;300;662;15991;3047
293;283;657;15977;3083
294;284;644;15963;3109
295;289;627;15957;3127
296;296;608;15925;3171
297;281;600;15921;3198
298;267;608;15912;3213
299;259;588;15937;3216
300;259;584;15927;3230
301;262;573;15904;3261
302;250;557;15900;3293
303;264;529;15892;3315
304;267;514;15879;3340
305;278;516;15833;3373
306;261;511;15822;3406
307;236;515;15797;3452
308;211;524;15792;3473
309;213;517;15753;3517
310;227;493;15755;3525
311;224;480;15740;3556
312;227;462;15690;3621
313;246;449;15670;3635
314;231;453;15637;3679
315;220;440;15616;3724
316;208;433;15597;3762
317;209;439;15558;3794
318;229;430;15520;3821
319;239;406;15476;3879
320;240;394;15454;3912
321;226;408;15420;3946
322;234;402;15389;3975
323;224;408;15343;4025
324;221;402;15319;4058
325;219;404;15280;4097
326;217;399;15244;4140
327;217;414;15210;4159
328;222;410;15166;4202
329;226;418;15146;4210
330;215;430;15104;4251
331;218;425;15078;4279
332;235;425;15050;4290
333;226;420;15011;4343
334;232;427;14978;4363
335;222;432;14951;4395
336;243;411;14936;4410
337;254;418;14918;4410
338;246;421;14885;4448
339;238;438;14841;4483
340;279;419;14821;4481
341;280;408;14808;4504
342;275;432;14773;4520
343;278;425;14758;4539
344;268;431;14719;4582
345;262;438;14702;4598
346;274;427;14667;4632
347;272;428;14650;4650
348;275;452;14606;4667
349;283;446;14582;4689
350;284;462;14557;4697
351;291;465;14535;4709
352;286;484;14514;4716
353;301;504;14465;4730
354;307;516;14447;4730
355;322;511;14425;4742
356;308;532;14400;4760
357;307;554;14380;4759
358;308;566;14352;4774
359;337;563;14345;4755
360;351;562;14339;4748
361;357;567;14319;4757
362;351;605;14290;4754
363;367;606;14274;4753
364;374;618;14251;4757
365;375;641;14233;4751
366;378;648;14236;4738
367;382;657;14236;4725
368;401;657;14244;4698
369;416;653;14244;4687
370;418;668;14254;4660
371;439;676;14258;4627
372;445;689;14250;4616
373;434;707;14248;4611
374;443;717;14248;4592
375;449;729;14245;4577
376;466;727;14232;4575
377;477;716;14256;4551
378;477;723;14293;4507
379;454;757;14289;4500
380;468;771;14278;4483
381;475;771;14303;4451
382;444;800;14307;4449
383;456;791;14308;4445
384;438;818;14306;4438
385;454;817;14311;4418
386;451;812;14328;4409
387;445;818;14350;4387
388;448;841;14344;4367
389;445;853;14352;4350
390;458;830;14403;4309
391;472;828;14411;4289
392;492;837;14403;4268
393;483;839;14429;4249
394;474;851;14446;4229
395;481;838;14453;4228
396;482;848;14460;4210
397;485;860;14478;4177
398;493;866;14498;4143
399;512;858;14514;4116
400;504;869;14513;4114
401;522;918;14498;4062
402;501;926;14522;4051
403;507;898;14560;4035
404;518;877;14608;3997
405;512;887;14613;3988
406;498;906;14640;3956
407;521;915;14649;3915
408;522;930;14658;3890
409;530;925;14678;3867
410;519;913;14706;3862
411;499;921;14720;3860
412;498;917;14758;3827
413;472;923;14786;3819
414;461;916;14827;3796
415;476;888;14869;3767
416;464;875;14901;3760
417;452;901;14911;3736
418;462;896;14918;3724
419;463;877;14953;3707
420;468;885;14950;3697
421;442;884;14976;3698
422;423;887;14982;3708
423;410;875;15001;3714
424;417;845;15025;3713
425;448;815;15014;3723
426;438;795;15031;3736
427;435;777;15057;3731
428;397;792;15055;3756
429;376;808;15061;3755
430;363;790;15064;3783
431;358;791;15051;3800
432;377;769;15049;3805
433;383;760;15067;3790
434;365;764;15074;3797
435;344;774;15075;3807
436;336;767;15070;3827
437;366;727;15085;3822
438;390;682;15112;3816
439;388;682;15094;3836
440;390;689;15087;3834
441;375;707;15080;3838
442;382;684;15086;3848
443;372;693;15070;3865
444;365;700;15043;3892
445;351;707;15047;3895
446;366;696;15018;3920
447;355;705;15013;3927
448;345;689;14997;3969
449;342;686;14983;3989
450;365;652;14979;4004
451;360;651;14935;4054
452;346;659;14931;4064
453;333;680;14890;4097
454;373;646;14894;4087
455;381;642;14882;4095
456;363;652;14861;4124
457;372;648;14842;4138
458;357;670;14812;4161
459;350;697;14778;4175
460;366;679;14766;4189
461;392;663;14775;4170
462;412;661;14761;4166
463;395;669;14739;4197
464;389;684;14736;4191
465;404;679;14749;4168
466;407;672;14753;4168
467;413;676;14733;4178
468;401;697;14722;4180
469;400;695;14726;4179
470;394;708;14732;4166
471;404;699;14721;4176
472;391;702;14712;4195
473;397;696;14713;4194
474;413;699;14707;4181
475;412;690;14701;4197
476;385;710;14697;4208
477;392;714;14671;4223
478;377;708;14663;4252
479;376;719;14658;4247
480;388;709;14651;4252
481;386;705;14636;4273
482;385;694;14649;4272
483;388;707;14662;4243
484;410;698;14668;4224
485;416;695;14652;4237
486;433;702;14651;4214
487;418;699;14669;4214
488;413;698;14662;4227
489;415;709;14634;4242
490;415;715;14643;4227
491;418;718;14652;4212
492;381;755;14645;4219
493;376;767;14637;4220
494;394;740;14662;4204
495;398;718;14674;4210
496;436;706;14653;4205
497;449;701;14651;4199
498;426;736;14665;4173
499;443;734;14644;4179
500;431;719;14647;4203
501;402;741;14653;4204
502;400;751;14642;4207
503;423;746;14626;4205
504;422;757;14619;4202
505;447;725;14634;4194
506;430;735;14654;4181
507;416;754;14640;4190
508;411;779;14625;4185
509;403;802;14626;4169
510;422;802;14607;4169
511;449;778;14631;4142
512;455;774;14623;4148
513;419;804;14623;4154
514;428;803;14654;4115
515;424;809;14657;4110
516;430;803;14671;4096
517;426;800;14678;4096
518;418;784;14703;4095
519;427;801;14707;4065
520;416;805;14712;4067
521;443;770;14753;4034
522;437;763;14755;4045
523;420;758;14775;4047
524;447;738;14769;4046
525;444;752;14763;4041
526;459;749;14770;4022
527;425;772;14781;4022
528;410;781;14782;4027
529;383;804;14804;4009
530;402;798;14809;3991
531;423;771;14824;3982
532;445;773;14819;3963
533;434;777;14810;3979
534;440;785;14810;3965
535;448;772;14828;3952
536;445;761;14839;3955
537;444;774;14845;3937
538;435;790;14836;3939
539;414;797;14859;3930
540;412;787;14872;3929
541;406;789;14888;3917
542;429;772;14888;3911
543;411;768;14915;3906
544;407;755;14919;3919
545;394;758;14950;3898
546;401;756;14973;3870
547;397;746;14982;3875
548;398;748;14986;3868
549;401;732;14991;3876
550;413;717;14985;3885
551;419;726;14981;3874
552;415;748;14961;3876
553;411;735;14951;3903
554;407;744;14959;3890
555;422;735;14966;3877
556;416;741;14976;3867
557;405;741;14975;3879
558;398;747;14966;3889
559;378;751;14981;3890
560;371;744;14982;3903
561;367;726;14994;3913
562;374;728;15011;3887
563;393;707;15013;3887
564;396;699;15017;3888
565;390;713;15018;3879
566;382;717;15003;3898
567;380;718;14994;3908
568;386;705;15003;3906
569;396;704;15000;3900
570;394;715;14963;3928
571;389;718;14958;3935
572;380;718;14944;3958
573;359;736;14945;3960
574;360;743;14934;3963
575;357;711;14951;3981
576;366;708;14960;3966
577;371;701;14955;3973
578;378;691;14950;3981
579;370;692;14939;3999
580;391;674;14935;4000
581;372;691;14936;4001
582;372;690;14905;4033
583;377;698;14891;4034
584;360;717;14880;4043
585;371;716;14866;4047
586;382;712;14839;4067
587;399;715;14833;4053
588;388;713;14844;4055
589;383;721;14852;4044
590;394;737;14845;4024
591;392;742;14826;4040
592;410;738;14833;4019
593;398;728;14851;4023
594;393;737;14847;4023
595;391;744;14853;4012
596;375;747;14858;4020
597;384;736;14870;4010
598;399;730;14861;4010
599;367;738;14867;4028
600;360;731;14871;4038
601;378;702;14879;4041
602;375;704;14885;4036
603;384;698;14882;4036
604;391;682;14886;4041
605;374;684;14888;4054
606;359;694;14866;4081
607;363;686;14859;4092
608;376;685;14853;4086
609;362;699;14846;4093
610;379;687;14854;4080
611;368;696;14834;4102
612;376;697;14813;4114
613;381;701;14821;4097
614;397;685;14820;4098
615;386;705;14807;4102
616;386;698;14823;4093
617;391;699;14816;4094
618;423;677;14812;4088
619;411;676;14808;4105
620;386;687;14790;4137
621;385;698;14772;4145
622;402;704;14773;4121
623;422;689;14758;4131
624;418;717;14744;4121
625;409;730;14755;4106
626;414;727;14770;4089
627;408;758;14726;4108
628;402;754;14726;4118
629;418;746;14733;4103
630;429;758;14729;4084
631;447;750;14740;4063
632;444;771;14712;4073
633;472;747;14724;4057
634;490;756;14724;4030
635;471;755;14730;4044
636;463;780;14725;4032
637;446;793;14724;4037
638;437;782;14743;4038
639;420;802;14743;4035
640;433;792;14740;4035
641;443;768;14780;4009
642;431;782;14785;4002
643;415;777;14785;4023
644;418;792;14763;4027
645;407;791;14754;4048
646;418;791;14741;4050
647;443;794;14726;4037
648;447;787;14737;4029
649;453;793;14735;4019
650;436;793;14759;4012
651;441;780;14762;4017
652;441;765;14773;4021
653;416;786;14771;4027
654;401;796;14782;4021
655;414;791;14787;4008
656;392;786;14777;4045
657;413;787;14775;4025
658;423;748;14783;4046
659;430;771;14753;4046
660;431;776;14746;4047
661;418;790;14739;4053
662;409;769;14775;4047
663;405;781;14777;4037
664;407;775;14776;4042
665;428;777;14759;4036
666;420;762;14766;4052
667;416;779;14750;4055
668;427;764;14751;4058
669;417;759;14777;4047
670;433;736;14793;4038
671;422;729;14813;4036
672;417;733;14823;4027
673;418;747;14797;4038
674;410;757;14800;4033
675;403;773;14762;4062
676;389;768;14766;4077
677;388;777;14751;4084
678;408;752;14753;4087
679;413;758;14742;4087
680;416;762;14740;4082
681;412;763;14735;4090
682;407;776;14722;4095
683;400;757;14768;4075
684;401;767;14765;4067
685;404;784;14754;4058
686;410;784;14744;4062
687;400;786;14719;4095
688;396;784;14711;4109
689;384;787;14696;4133
690;397;764;14709;4130
691;409;766;14683;4142
692;430;751;14680;4139
693;439;751;14664;4146
694;459;743;14674;4124
695;447;758;14671;4124
696;436;770;14667;4127
697;423;792;14651;4134
698;440;776;14661;4123
699;419;772;14669;4140
700;417;779;14633;4171
701;411;781;14648;4160
702;427;757;14667;4149
703;434;776;14651;4139
704;442;782;14647;4129
705;436;791;14632;4141
706;439;788;14649;4124
707;450;781;14682;4087
708;433;790;14686;4091
709;422;811;14675;4092
710;437;777;14686;4100
711;447;775;14694;4084
712;464;786;14690;4060
713;450;786;14711;4053
714;435;805;14706;4054
715;434;797;14707;4062
716;421;813;14695;4071
717;424;822;14711;4043
718;416;835;14724;4025
719;419;836;14742;4003
720;444;826;14742;3988
721;439;829;14747;3985
722;456;830;14733;3981
723;450;834;14755;3961
724;441;829;14765;3965
725;427;849;14758;3966
726;424;843;14758;3975
727;425;852;14760;3963
728;460;827;14764;3949
729;462;809;14766;3963
